englishSuffixes = [
"sploitation", "a-palooza", "cephalous", "dermatous", "graphical", "iatrician",
"ification", "istically", "plinerved", "something", "ambulist", "anthropy",
"centesis", "centrism", "cephalic", "fication", "gnathous", "mageddon",
"morphism", "morphous", "oic acid", "phoresis", "tainment", "year-old",
"ability", "acharya", "andrian", "androus", "angular", "blastic", "borough",
"carpous", "centric", "cephaly", "ception", "dromous", "enchyma", "escence",
"facient", "faction", "genesis", "grapher", "iatrics", "ibility", "iferous",
"isation", "istical", "ization", "kinesis", "licious", "lingual", "logical",
"malacia", "manship", "meister", "morphic", "o-matic", "odontia", "oecious",
"ologist", "onomics", "partite", "phagous", "philiac", "philous", "phrenia",
"poiesis", "polises", "pounder", "preneur", "pterous", "rrhagia", "rrhaphy",
"rrhexis", "strophy", "tacular", "thermal", "thermic", "trophic", "tropism",
"ylidene", "a-thon", "aceous", "acious", "adelic", "adenia", "agogue", "aholic",
"amundo", "aneous", "athlon", "bility", "biosis", "biotic", "burger", "cardia",
"carpic", "chezia", "choron", "chrome", "clinal", "clinic", "coccus", "colous",
"cratic", "dipsia", "ectomy", "ennial", "escent", "ferous", "furter", "gamous",
"geddon", "genous", "gerous", "gramme", "graphy", "hedral", "hedron", "holism",
"iatric", "illion", "imundo", "landia", "leptic", "logist", "logues", "mancer",
"maniac", "mantic", "megaly", "mentum", "merous", "metric", "mobile", "morphy",
"mycete", "nomics", "o-rama", "ocracy", "oholic", "ometer", "ometry", "ostomy",
"parous", "pathic", "people", "person", "phagia", "phasia", "philia", "philic",
"phobia", "phobic", "phonic", "plasia", "plasty", "plegia", "plegic", "pteran",
"ridden", "riffic", "rrhoea", "saurus", "scopic", "selves", "sexual", "sphere",
"splain", "stasis", "static", "statin", "tastic", "thermy", "trophy", "tropic",
"uretic", "valent", "vorous", "worthy", "zygous", "acity", "aemia", "agogy",
"algia", "ality", "amine", "ander", "andry", "angle", "archy", "arian", "arium",
"assed", "aster", "astic", "athon", "ation", "ative", "atory", "biont", "blast",
"bound", "burgh", "caine", "chore", "chory", "cidal", "clase", "clast", "cline",
"cocci", "coele", "cracy", "craft", "crasy", "crete", "cycle", "derma", "diene",
"drome", "dynia", "elect", "ergic", "esque", "fugal", "genic", "genin", "gonal",
"graph", "grave", "hedra", "henge", "holic", "iasis", "iatry", "ician", "icide",
"icism", "icity", "idine", "ienne", "iform", "ismus", "istic", "itude", "izzle",
"lalia", "latry", "lepsy", "lings", "logic", "logue", "loquy", "lysis", "lytic",
"machy", "mance", "mancy", "mania", "meter", "metre", "metry", "micin", "morph",
"mycin", "nasty", "odont", "ogony", "ology", "omata", "omics", "onium", "onomy",
"onymy", "opsia", "orama", "osity", "otomy", "pants", "pathy", "pause", "pedia",
"penia", "petal", "phage", "phagy", "phile", "phily", "phobe", "phone", "phony",
"phore", "phyll", "phyte", "plast", "pnoea", "poeia", "polis", "proof", "ptile",
"rices", "rrhea", "rrhœa", "sauce", "scape", "scope", "scopy", "shire", "sicle",
"sophy", "speak", "stock", "stomy", "style", "styly", "terol", "therm", "tinib",
"to-be", "topia", "topic", "treme", "trope", "troph", "tropy", "tuple", "verse",
"ville", "wards", "woman", "women", "worth", "ylene", "zilla", "able", "ably",
"acal", "adic", "agog", "aire", "algy", "ally", "amic", "ance", "ancy", "anth",
"arch", "atim", "ator", "born", "boro", "burg", "bury", "cade", "care", "carp",
"cele", "cene", "chan", "cide", "coel", "core", "corn", "crat", "cyte", "derm",
"elle", "emia", "ence", "ency", "enyl", "eous", "ergy", "esce", "etic", "ette",
"exia", "fest", "fier", "fold", "ford", "form", "free", "gamy", "gasm", "gate",
"gaze", "geny", "glot", "gony", "gram", "gyny", "head", "hood", "iana", "ible",
"ibly", "ical", "icle", "iety", "ific", "inda", "iour", "ious", "ista", "itis",
"itol", "izer", "kin-", "kind", "kini", "kins", "land", "lect", "lept", "less",
"like", "ling", "lite", "lith", "lock", "logs", "logy", "long", "mane", "mans",
"meal", "ment", "mere", "mony", "more", "most", "nado", "naut", "nazi", "nema",
"ness", "nomy", "nymy", "oate", "omas", "onym", "opia", "opsy", "osin", "osis",
"otic", "path", "pexy", "phil", "phor", "phyl", "plex", "pnea", "pœia", "poly",
"pter", "punk", "R Us", "rama", "ress", "safe", "sama", "saur", "self", "ship",
"side", "sies", "sion", "soft", "some", "sson", "stan", "stat", "ster", "tard",
"teen", "tene", "thon", "tide", "tion", "tome", "tomy", "tort", "town", "tron",
"tude", "type", "uous", "uret", "urgy", "uria", "vir-", "vore", "ward", "ware",
"ways", "wear", "wich", "wick", "wide", "wise", "work", "xeny", "zoan", "zoic",
"ade", "age", "all", "ana", "and", "ane", "ant", "ard", "ary", "ase", "ass",
"ast", "ate", "bie", "bot", "cha", "cin", "dar", "dom", "ean", "een", "eer",
"eme", "end", "ene", "ent", "'er", "ern", "ers", "ery", "ese", "ess", "est",
"eth", "fag", "fix", "ful", "gen", "gon", "ial", "ian", "ica", "ice", "ick",
"ics", "ide", "ier", "ies", "ify", "ile", "ily", "in'", "ine", "ing", "ïng",
"ino", "ion", "iot", "ise", "ish", "ism", "ist", "ite", "ity", "ium", "ive",
"ize", "kin", "kun", "let", "lin", "log", "lol", "mab", "man", "mas", "max",
"men", "mer", "nap", "nik", "nom", "n't", "nym", "ock", "ode", "off", "oic",
"oid", "ola", "ole", "oma", "ome", "one", "oon", "ory", "ose", "oth", "ous",
"oxy", "oyl", "ple", "pod", "'re", "red", "rel", "ren", "ric", "rix", "san",
"sis", "ski", "sky", "sol", "son", "ton", "ual", "ule", "ure", "wad", "way",
"xor", "yer", "yne", "zza", "ab", "ac", "ad", "ae", "al", "an", "ar", "ay",
"by", "ce", "cy", "'d", "ed", "èd", "ee", "eh", "el", "en", "er", "es", "et",
"ex", "ey", "fu", "fy", "i-", "ia", "ic", "id", "ie", "in", "ja", "ji", "le",
"ly", "'m", "mo", "nd", "oi", "ol", "on", "or", "os", "ov", "rd", "ry", "'s",
"st", "th", "ty", "um", "yl"];
