n
n
k
t
p
m
y
c
w
s
t
c
n
c
w
m
n
w
t
t
t
y
t
c
s
y
t
p
t
y
f
k
n
m
n
p
s
t
s
p
w
k
n
y
n
k
s
p
c
m
k
l
s
y
c
p
y
t
k
t
s
k
m
k
l
l
t
l
k
w
t
p
n
k
t
n
t
s
t
t
t
y
l
p
t
s
k
c
c
p
l
k
n
t
t
t
l
w
k
l
p
l
s
k
t
s
c
c
f
s
y
n
t
t
t
m
y
l
k
y
c
w
t
n
c
p
s
y
y
k
m
c
p
k
k
t
n
t
k
p
c
p
m
n
w
t
k
t
t
s
s
t
p
p
y
m
f
n
k
t
p
p
p
y
f
c
k
s
t
p
c
t
c
s
k
t
s
l
f
t
c
k
y
k
t
w
c
f
p
l
l
k
p
f
c
t
k
t
p
m
c
f
t
w
s
t
t
l
n
f
t
t
n
m
c
p
s
c
t
k
t
y
n
t
k
p
l
k
l
l
p
n
n
s
w
p
l
t
y
k
t
k
m
c
m
t
y
t
n
k
m
t
k
s
l
c
c
p
m
t
f
s
s
p
y
k
p
p
p
y
w
t
p
p
s
k
t
k
k
m
c
c
t
n
c
t
t
p
p
k
m
m
s
k
k
f
s
p
m
m
f
t
p
k
l
f
t
k
l
p
p
c
m
t
l
p
n
p
k
k
k
s
t
c
k
t
p
s
c
c
t
f
n
t
t
s
p
c
t
m
s
m
w
t
k
s
n
k
t
p
k
n
c
t
t
t
n
s
t
s
m
k
s
p
n
t
f
c
f
l
s
c
c
t
c
t
c
t
t
l
p
t
p
m
k
n
t
p
c
w
y
w
p
k
p
m
s
m
s
k
k
t
k
t
c
p
t
m
t
m
k
s
m
t
k
p
c
s
s
t
l
k
n
p
t
f
t
t
m
k
s
s
k
p
m
s
s
k
c
t
s
t
k
p
n
t
p
p
m
f
s
m
y
f
k
t
k
k
n
m
t
c
s
p
k
p
t
t
t
t
n
p
p
p
s
t
s
t
p
k
l
t
k
p
k
n
s
n
t
t
k
m
k
n
m
p
s
c
m
f
c
k
n
t
k
m
p
k
m
k
p
t
f
n
m
p
l
k
c
p
k
p
m
k
k
f
k
k
c
c
m
s
p
t
p
k
t
f
p
k
k
m
p
k
l
k
f
f
l
p
t
p
f
n
m
p
t
c
p
p
n
c
l
t
f
k
n
t
p
n
k
s
p
m
k
w
t
t
n
m
t
k
c
k
c
f
f
k
w
p
p
k
c
p
k
p
k
n
s
t
b
r
z
p
k
d
r
r
n
r
s
t
t
s
b
d
f
d
t
m
c
r
m
n
c
s
r
c
r
t
c
r
k
k
t
m
t
g
k
c
s
r
r
b
m
d
w
n
b
c
s
s
n
b
c
r
g
d
n
d
t
d
l
s
g
r
s
b
l
c
g
k
b
t
s
k
n
t
z
b
b
k
g
w
b
b
r
d
d
j
p
g
s
n
y
f
d
n
b
m
d
p
d
j
m
p
k
k
l
r
t
r
d
t
c
d
c
l
y
j
r
m
t
c
k
l
c
j
t
d
k
s
c
m
d
g
c
j
d
c
y
p
t
t
d
r
t
k
p
n
t
s
p
s
f
g
n
c
d
m
d
g
t
d
n
s
r
n
z
k
k
n
g
g
t
t
n
c
s
s
p
y
c
r
c
z
d
p
n
z
b
m
t
c
k
n
w
c
n
g
b
b
p
t
p
c
p
w
d
c
d
c
z
r
k
c
r
m
b
t
z
s
c
t
r
r
b
c
w
k
t
k
b
t
k
t
n
g
d
p
c
n
r
r
n
s
g
k
d
z
d
s
m
n
b
d
d
g
p
p
g
t
t
r
f
k
m
d
r
t
d
r
w
b
f
p
c
t
t
p
c
k
n
d
p
m
t
c
g
t
g
w
r
s
t
r
d
s
k
f
p
c
g
r
s
r
k
b
k
k
f
k
g
p
d
r
s
m
r
d
z
s
k
g
s
c
p
z
d
k
s
s
b
f
j
s
b
t
b
r
t
b
k
y
t
d
z
t
t
l
d
k
d
k
b
k
r
k
w
t
d
m
k
n
n
b
f
p
p
l
s
p
b
w
w
l
b
p
s
l
t
k
t
t
p
g
t
g
j
p
l
w
t
p
c
c
p
n
r
p
s
d
t
r
f
y
l
n
n
f
p
m
f
m
t
t
r
t
g
p
l
n
t
j
r
c
d
j
n
k
t
l
p
c
t
p
k
s
p
t
c
s
s
t
c
k
k
r
g
t
p
p
f
c
m
s
t
y
t
p
y
g
m
j
k
g
b
m
l
c
b
t
j
n
s
c
b
d
k
p
p
g
s
p
l
d
l
p
w
d
b
n
b
p
j
b
j
t
d
p
k
k
r
c
d
g
d
p
b
z
n
m
s
c
k
n
s
j
j
m
d
l
s
f
g
m
s
z
n
d
p
f
f
c
r
t
t
w
n
k
d
p
s
g
k
s
b
n
m
k
t
p
s
s
t
r
n
s
j
b
g
l
s
k
c
s
r
r
s
r
t
f
k
d
n
s
m
b
m
z
c
z
t
c
s
m
s
r
p
b
m
j
k
d
k
t
d
t
f
l
m
k
m
r
p
b
m
s
k
g
n
r
g
s
k
f
f
n
c
l
m
z
p
f
c
g
s
t
b
b
b
d
g
k
n
j
n
m
b
g
z
b
p
t
b
t
k
n
l
c
j
g
p
d
k
t
b
z
c
t
b
c
b
z
m
d
p
g
c
c
t
p
k
d
c
s
c
j
k
b
r
m
f
z
c
t
m
t
t
c
g
k
t
d
c
n
c
m
f
n
p
t
n
w
n
f
w
g
f
f
b
w
s
c
b
l
b
c
c
p
f
g
z
g
f
c
f
j
b
k
b
t
p
p
k
b
d
k
k
p
k
z
s
g
m
m
f
t
g
y
k
s
n
z
m
g
r
z
t
m
d
b
t
f
d
n
z
p
j
d
m
m
c
b
s
d
p
s
t
d
j
k
k
g
c
k
p
m
t
c
d
r
y
d
d
s
z
d
k
r
m
r
s
s
b
k
b
k
t
z
d
m
m
p
t
l
k
c
f
m
s
s
b
t
f
r
r
f
p
s
t
p
g
f
l
j
b
d
n
b
r
c
b
n
r
t
d
r
k
k
c
p
n
t
g
z
j
t
d
p
m
c
d
b
s
b
j
d
s
p
g
p
m
k
m
t
k
t
t
z
n
l
j
j
s
f
k
w
l
m
k
b
g
w
p
p
m
m
k
k
c
l
k
j
r
c
z
s
c
t
b
t
s
p
p
c
b
d
k
j
d
k
z
c
m
l
f
p
g
b
g
f
g
m
b
p
g
g
p
j
n
t
s
f
p
n
d
d
c
f
r
g
g
t
d
w
l
s
j
m
f
g
b
j
g
d
p
j
k
r
j
k
j
t
p
p
s
n
k
g
p
k
k
j
p
k
f
n
b
g
y
f
p
r
b
z
f
c
j
c
l
t
m
d
n
k
k
j
d
p
d
p
b
t
t
n
p
t
z
s
j
r
z
n
g
z
t
j
t
k
g
k
f
t
d
p
b
t
k
g
g
f
t
p
g
k
b
t
t
b
d
c
c
t
t
n
t
c
g
b
n
s
g
s
j
s
j
n
s
n
g
p
z
b
y
n
n
r
c
j
t
j
r
d
m
r
k
n
z
d
m
f
m
p
r
f
g
z
z
w
b
p
j
b
m
m
b
k
c
j
p
m
r
g
p
t
g
d
n
c
d
k
b
b
b
k
g
j
d
b
d
b
f
k
t
n
z
b
r
n
n
c
t
k
d
p
p
l
p
k
p
n
c
p
g
z
k
c
g
k
d
c
g
g
k
n
c
g
m
f
d
s
s
l
m
t
n
n
b
g
t
k
m
c
p
d
z
j
s
r
p
b
c
r
b
s
k
l
b
l
b
j
b
k
b
n
g
d
t
c
t
d
l
b
p
p
g
k
f
r
m
k
j
z
b
k
w
z
g
l
n
b
s
t
k
m
l
t
b
d
j
k
p
b
s
m
b
k
d
s
w
s
t
j
g
d
s
t
b
t
m
g
t
r
j
p
d
p
t
t
s
t
n
g
g
j
j
r
p
t
t
s
n
t
t
p
d
n
m
j
c
m
t
r
d
k
b
p
s
d
b
y
d
b
b
c
w
c
k
n
f
c
t
p
s
b
g
d
t
t
s
k
b
m
k
m
r
k
g
d
l
k
t
k
n
j
p
g
k
g
p
k
k
t
y
n
g
p
d
g
d
z
k
j
l
j
p
r
b
k
l
f
n
k
s
l
d
g
l
t
p
f
m
p
b
b
b
t
d
k
l
l
k
s
d
b
t
j
r
d
j
b
g
l
r
r
p
s
d
k
d
k
m
p
n
p
z
d
n
k
d
d
k
n
l
z
k
p
c
f
g
k
j
m
s
l
f
p
n
n
t
l
d
s
g
g
k
g
d
g
b
b
b
b
k
c
g
g
y
f
n
r
c
k
p
d
k
c
f
g
d
r
p
k
n
t
p
g
g
c
z
n
t
m
z
d
p
b
d
k
m
c
c
t
g
j
t
k
g
g
s
n
k
b
f
n
d
p
b
p
z
f
k
g
k
p
z
n
j
b
k
m
f
d
d
t
d
l
p
n
f
r
d
b
f
d
d
f
k
d
p
s
s
n
m
p
l
n
g
m
k
k
l
n
g
n
c
d
f
b
f
d
d
t
g
l
m
f
z
s
k
p
t
f
l
m
j
d
c
b
p
j
r
t
k
f
n
j
z
b
d
s
b
t
p
c
m
b
x
x
k
x
t
k
k
x
q
x
x
x
b
d
x
t
t
k
v
n
n
m
l
t
x
r
p
x
l
g
q
q
x
m
q
k
x
x
k
f
t
s
x
x
q
r
b
d
x
x
x
s
p
p
k
p
v
x
f
v
x
k
q
t
t
v
s
n
t
v
p
m
p
b
d
f
r
t
q
p
k
s
x
v
x
x
q
l
g
p
v
x
t
x
x
x
x
c
x
t
q
t
x
p
p
t
m
b
q
x
g
v
g
p
z
x
q
k
b
k
n
p
r
k
x
x
d
x
q
n
s
g
t
p
q
t
m
t
x
d
t
k
x
x
m
t
t
n
v
f
v
r
v
x
k
x
x
d
k
p
q
r
d
p
p
x
k
q
v
c
v
t
q
d
v
x
n
q
x
p
x
f
x
t
d
t
v
k
d
x
v
q
q
t
b
x
k
v
p
m
p
q
q
k
p
b
g
b
v
p
m
q
q
v
b
d
x
x
r
x
r
t
l
t
p
d
p
m
p
x
x
x
j
q
b
k
n
p
d
n
f
x
t
p
n
z
x
d
x
t
g
l
p
v
s
p
v
d
x
p
n
x
q
k
r
g
g
q
t
k
k
q
g
v
x
x
z
b
d
n
v
q
b
t
d
d
l
n
c
r
m
s
g
x
x
l
n
f
t
v
b
d
p
l
x
k
t
l
g
k
t
q
k
b
t
r
t
q
b
v
t
x
f
m
m
p
s
g
v
v
t
x
v
s
b
d
d
l
x
k
t
t
t
t
g
g
t
q
v
v
p
q
p
g
p
j
v
q
k
t
v
v
b
s
q
p
p
d
t
n
t
v
p
p
s
f
v
y
p
v
x
x
c
v
b
q
m
m
v
d
s
x
d
n
b
d
d
s
f
b
b
t
j
t
s
x
b
x
d
s
d
z
x
v
t
v
b
m
v
q
x
p
g
m
p
s
t
d
m
d
k
l
x
m
n
l
s
t
p
k
d
b
x
v
v
t
p
q
l
s
b
s
x
p
g
t
t
x
t
n
q
s
s
d
y
x
q
p
q
x
b
p
q
q
s
f
t
q
p
g
l
f
k
b
k
t
x
t
q
g
q
f
d
j
m
n
g
d
p
v
z
q
n
l
z
r
k
s
f
d
s
j
m
x
b
f
g
g
k
r
z
v
j
p
s
t
v
g
q
k
p
v
x
d
g
k
x
k
v
b
x
k
p
k
z
k
s
v
x
b
b
t
k
d
g
x
z
d
p
p
j
q
v
f
b
d
p
m
p
g
v
w
p
p
z
b
v
v
n
j
d
g
q
k
j
q
p
q
r
m
b
t
q
q
k
b
v
p
b
t
d
b
d
w
t
d
n
k
b
s
d
t
j
z
n
k
s
j
g
t
b
n
m
s
x
w
b
f
d
x
n
k
k
s
n
x
t
k
t
x
b
t
b
g
g
q
m
b
p
p
d
x
p
b
x
z
p
x
k
p
g
b
x
m
x
d
g
l
k
g
d
g
t
t
r
m
b
g
d
t
k
v
b
p
x
x
p
k
b
k
p
x
b
z
x
n
b
b
d
s
p
k
v
v
g
p
b
v
b
p
g
b
k
v
x
p
d
p
x
p
l
x
v
n
b
g
b
t
p
f
z
c
d
j
b
v
x
t
n
b
n
d
v
m
x
f
p
x
x
x
t
k
g
g
n
z
k
q
x
v
m
m
m
b
t
q
f
q
k
v
x
p
q
p
t
b
p
b
q
n
k
g
k
p
m
g
x
f
q
p
g
c
g
k
g
x
k
z
x
t
b
x
y
j
c
q
b
b
b
f
k
s
m
n
p
d
x
q
p
q
k
j
t
q
s
m
k
l
n
y
q
g
d
x
t
x
b
k
b
b
k
t
q
b
g
b
x
x
k
x
n
b
x
p
k
j
q
d
d
x
f
b
v
r
l
q
d
x
v
g
s
k
t
m
d
x
g
p
k
d
k
g
t
g
z
v
x
q
n
r
g
q
l
d
g
d
b
l
z
p
q
v
g
c
q
t
x
b
t
m
d
k
z
z
k
z
d
t
q
k
d
n
r
s
v
r
x
r
t
d
x
f
v
t
n
x
g
g
q
k
t
f
l
t
x
y
p
b
d
x
t
z
b
k
d
k
t
d
v
r
q
n
g
g
m
p
v
k
d
n
m
d
b
p
g
x
p
x
m
s
k
b
x
g
p
b
f
x
q
t
t
d
z
d
m
g
r
p
x
p
t
t
j
b
d
j
f
n
p
j
t
b
k
p
f
t
b
p
z
t
f
t
m
q
k
n
t
p
g
x
g
q
k
k
s
m
k
g
g
k
q
r
b
z
j
g
m
k
b
b
l
f
g
x
q
x
q
q
p
w
g
x
b
g
v
x
s
s
s
k
z
y
g
x
t
g
x
v
p
b
n
x
t
t
z
k
k
t
g
k
g
n
m
t
g
b
x
v
v
k
g
r
t
x
k
m
j
b
n
b
m
b
z
l
s
k
d
q
m
b
z
b
l
q
k
b
l
g
m
c
q
d
d
t
k
d
j
f
q
v
q
z
z
q
z
v
z
v
m
q
n
d
j
q
m
d
x
p
q
t
t
g
n
k
k
r
p
n
n
p
k
f
p
j
g
p
q
j
q
j
x
d
n
p
g
g
p
f
v
p
s
z
b
d
k
r
t
d
j
s
b
b
p
x
d
f
g
c
z
p
q
y
t
t
f
b
d
x
v
q
k
g
x
v
q
t
c
l
m
g
p
c
l
x
p
p
b
c
x
v
m
s
z
d
z
b
d
m
x
m
k
x
z
p
g
c
b
f
n
q
d
t
b
d
g
n
d
m
p
b
l
t
g
c
q
t
f
p
r
g
v
p
t
s
n
s
k
b
j
k
g
d
d
d
g
b
p
d
t
k
t
f
t
c
k
d
p
l
v
x
q
k
k
m
s
d
b
d
q
q
g
d
z
k
f
q
f
k
v
z
q
x
r
g
d
d
r
s
p
z
p
n
r
f
s
t
b
b
m
z
d
q
v
n
f
v
s
g
d
m
p
s
m
b
b
x
f
b
n
k
z
x
z
t
x
m
z
b
k
z
q
p
d
n
f
x
p
t
x
v
x
k
g
t
f
x
q
l
j
k
k
g
d
t
x
k
l
m
n
b
d
g
j
z
n
p
q
p
s
x
k
q
g
r
f
g
f
p
g
d
k
b
s
d
p
q
v
t
s
p
q
d
n
q
j
g
q
d
j
s
j
g
d
f
g
v
d
v
d
n
f
v
t
q
b
m
v
t
d
v
n
g
z
m
m
b
z
d
s
b
t
s
n
m
t
d
k
d
k
v
k
k
p
k
k
t
p
f
p
n
t
n
t
y
n
s
m
b
b
m
n
t
p
n
s
n
k
t
l
b
t
k
j
s
p
r
n
p
t
t
b
s
r
p
x
r
n
l
r
k
t
n
k
n
m
r
m
d
m
t
d
x
t
x
n
b
t
t
n
s
s
n
d
n
m
t
s
t
x
s
l
m
f
t
t
p
r
s
k
n
l
v
w
m
l
c
t
m
f
c
m
s
w
d
l
s
r
k
n
g
f
s
p
p
n
r
t
x
r
x
x
d
t
n
k
c
k
k
p
t
t
k
k
p
m
w
n
d
b
p
t
m
n
d
d
k
d
n
t
t
d
t
k
q
v
k
t
t
d
s
t
r
t
f
k
m
k
k
x
l
t
t
t
l
k
p
s
j
t
l
p
d
p
k
q
m
w
r
s
p
j
s
m
c
t
t
t
t
p
t
p
f
p
k
n
r
k
s
k
d
n
l
n
l
d
x
t
r
n
k
g
r
l
f
w
v
y
r
m
t
s
t
t
t
x
t
s
s
x
p
v
l
b
r
y
t
t
t
r
t
x
l
t
t
s
m
g
k
y
l
s
n
l
c
c
k
k
x
m
s
k
l
n
t
f
x
y
t
k
g
x
t
t
c
s
r
y
m
n
m
m
p
r
t
d
x
d
s
n
b
t
t
n
r
p
d
f
b
g
n
l
b
l
b
x
l
b
p
t
r
p
s
w
s
t
s
s
t
s
g
n
d
n
p
g
t
k
x
b
t
j
r
p
s
y
r
d
t
y
m
c
p
n
c
t
n
r
b
c
b
q
j
r
f
k
m
w
k
c
k
n
m
n
k
t
l
p
v
p
p
d
x
r
n
n
p
t
g
t
t
t
m
t
t
m
x
k
x
b
b
b
p
s
d
c
r
x
k
x
k
c
l
g
l
c
p
k
m
m
t
f
k
s
t
r
t
m
r
s
c
q
r
s
g
s
b
c
t
s
j
d
w
t
y
x
x
m
p
c
k
g
d
t
s
t
t
p
m
s
p
m
n
g
t
w
y
k
p
t
k
c
m
q
n
t
t
d
d
r
d
s
f
m
b
m
k
j
v
m
l
q
y
m
f
k
r
c
n
s
x
t
p
x
t
t
t
s
g
p
x
b
s
x
y
w
k
t
b
x
b
t
f
n
m
k
k
t
n
t
t
t
p
x
r
k
r
q
x
n
t
s
v
k
q
l
t
l
y
p
s
m
k
b
d
t
b
g
d
n
m
d
d
d
t
t
x
t
k
k
t
n
n
n
s
l
s
t
w
w
s
k
g
m
j
k
t
f
k
f
p
x
k
q
b
j
k
g
p
m
c
d
l
r
k
d
m
p
n
k
f
p
n
g
m
t
c
y
p
t
c
s
t
b
k
b
l
v
y
s
s
t
b
t
y
k
c
x
f
k
t
k
m
t
f
t
m
s
t
k
p
m
l
k
s
d
t
s
y
d
w
b
k
f
d
m
m
g
m
n
w
t
l
j
p
r
w
d
j
b
s
k
b
k
t
b
d
w
n
j
g
x
t
y
b
j
k
k
s
m
f
b
p
t
x
s
t
b
s
b
r
x
k
k
x
d
p
k
d
t
d
p
b
r
g
t
k
n
m
t
g
k
y
x
l
x
n
t
t
p
p
p
t
p
l
l
d
t
p
k
l
m
t
s
t
s
n
x
f
k
r
x
s
r
t
n
m
n
s
t
s
t
m
f
c
d
r
r
s
b
p
t
s
f
r
x
n
x
k
g
k
t
m
g
s
r
f
s
z
l
m
c
c
k
q
s
c
x
b
b
d
k
d
v
l
k
b
w
t
s
k
r
n
d
t
t
n
n
p
n
k
x
j
y
p
f
g
j
r
t
g
r
p
b
n
c
g
n
d
d
b
n
b
q
d
b
d
p
y
t
s
x
p
s
t
x
n
n
r
f
s
n
c
q
m
v
q
c
x
x
q
t
p
k
t
m
p
p
j
t
p
k
w
n
t
n
w
p
p
k
k
l
m
m
n
c
n
d
t
s
s
p
p
m
k
n
t
p
d
p
m
t
f
t
z
p
y
f
r
x
x
d
t
p
g
p
t
k
b
z
p
p
t
w
p
m
g
b
x
t
w
n
k
r
p
x
b
x
y
b
x
t
p
l
d
d
t
g
d
m
g
c
d
k
d
x
t
t
n
v
b
s
r
l
y
l
k
n
r
x
x
k
b
r
g
t
m
d
t
x
z
l
s
d
n
k
s
k
t
f
p
k
p
b
p
m
p
n
t
s
v
f
k
m
x
m
p
b
k
m
t
b
p
n
v
p
v
p
s
j
m
n
s
k
y
k
g
w
k
p
v
t
v
b
m
l
s
d
r
f
t
r
q
d
n
q
b
k
t
p
k
k
m
n
k
b
v
n
d
k
t
d
p
s
f
p
v
b
m
x
k
p
k
c
r
p
k
s
n
s
l
m
t
p
k
w
m
t
y
k
b
p
g
b
b
k
x
t
t
j
p
k
t
b
x
p
s
m
r
l
m
t
t
z
r
k
c
s
b
y
p
q
x
p
k
p
w
b
p
c
t
t
w
k
p
z
s
d
q
f
r
f
t
j
g
p
t
p
r
k
f
s
t
t
x
j
c
t
t
k
m
b
b
t
v
t
t
l
s
l
d
c
m
t
x
k
q
f
p
d
r
t
r
m
s
n
n
k
q
z
d
b
b
s
n
n
n
n
l
k
t
t
g
q
s
t
c
t
t
t
t
k
s
p
t
p
n
m
b
z
w
t
d
f
t
s
c
d
y
s
k
z
f
p
p
s
x
d
m
k
p
m
x
d
x
s
t
b
n
p
x
c
m
b
j
t
q
m
k
n
z
s
g
t
g
s
c
f
v
p
x
y
k
w
t
k
k
p
f
k
m
z
s
l
t
k
k
g
d
m
m
d
c
p
l
p
c
c
w
k
m
d
p
r
m
x
m
d
v
t
t
m
v
k
v
b
f
b
n
k
t
n
r
f
p
d
b
m
s
p
d
c
k
x
s
k
k
c
k
p
p
b
k
n
m
t
t
s
s
g
l
l
v
n
j
r
k
q
t
s
d
d
t
v
n
d
k
p
m
n
g
s
k
s
f
q
r
t
t
t
r
g
c
k
k
d
k
s
c
t
f
l
k
d
k
c
v
d
t
z
x
p
x
p
s
k
s
d
p
x
d
d
b
k
g
x
v
s
n
b
s
k
s
z
t
b
w
t
s
m
g
s
z
l
g
x
q
n
p
p
t
c
f
k
k
x
r
t
c
m
t
d
t
k
p
z
d
s
r
d
d
p
s
b
k
s
x
k
x
t
k
m
l
m
l
x
x
q
m
k
d
l
x
q
p
b
r
t
l
k
s
l
k
n
q
n
s
r
k
p
k
t
j
b
f
f
s
t
r
k
t
m
n
t
t
k
j
g
k
m
t
p
m
t
q
d
m
n
p
t
f
m
g
f
v
z
t
n
g
b
x
b
q
b
x
k
p
r
d
k
m
s
p
j
k
f
m
d
s
c
g
f
t
l
s
n
k
n
k
t
f
b
n
x
m
c
d
z
r
q
w
t
p
z
q
b
t
k
c
m
c
t
c
c
p
p
k
m
n
s
d
p
d
v
w
n
k
x
l
t
p
s
g
t
t
t
y
b
n
j
q
s
c
k
n
m
s
d
p
d
x
s
x
p
l
p
b
v
x
t
d
b
p
p
k
d
t
x
x
d
x
t
s
k
f
s
m
b
z
s
n
k
k
t
p
d
p
s
f
p
t
p
d
f
s
v
b
q
n
n
l
c
d
s
c
t
k
s
m
s
b
b
g
x
x
r
k
s
t
l
m
m
q
d
r
v
b
n
g
k
k
q
k
t
p
v
w
t
v
l
n
d
p
y
x
c
t
x
b
l
p
t
l
f
q
d
f
s
y
k
x
j
t
t
f
p
s
n
l
p
t
k
b
k
t
x
t
q
b
t
m
x
v
k
s
g
p
j
v
k
c
s
s
r
s
x
x
p
t
p
x
b
f
m
p
b
g
t
k
b
m
t
g
c
k
k
p
g
l
n
w
b
p
x
t
b
n
t
y
b
k
b
t
t
x
s
n
b
l
y
d
m
b
l
k
l
d
r
q
r
s
j
j
j
p
b
g
m
b
t
p
b
k
x
d
p
p
t
g
b
k
s
k
l
k
l
x
p
k
k
d
t
q
g
k
k
v
r
d
g
k
p
s
x
m
x
s
l
n
t
j
n
v
k
x
c
t
s
n
g
c
k
n
t
f
g
f
k
f
m
n
k
s
d
m
t
f
s
r
p
y
m
n
q
w
w
d
k
x
l
p
p
t
n
q
s
n
s
g
d
f
g
m
b
g
x
g
m
p
g
j
n
t
t
l
p
t
t
m
l
p
t
p
r
s
t
q
c
x
z
d
s
p
z
k
t
t
p
g
n
g
m
y
k
p
r
r
g
b
t
s
r
q
x
b
t
k
g
z
g
x
g
k
n
m
r
t
n
k
x
s
m
k
t
d
g
x
p
f
r
g
c
f
n
p
b
r
n
s
v
n
c
p
b
b
s
r
m
t
t
q
m
p
p
t
m
k
p
p
k
k
l
s
s
c
p
d
g
m
m
b
y
b
g
t
k
g
s
f
r
t
m
n
c
q
z
k
t
k
p
s
p
x
p
p
s
c
n
p
k
x
p
k
g
b
p
t
t
t
m
t
k
z
f
t
t
n
f
t
r
t
x
d
b
n
g
k
q
s
n
j
d
s
x
n
t
p
d
x
n
x
x
b
k
b
d
p
x
c
q
b
n
t
r
f
t
f
f
s
t
c
p
b
k
g
s
k
k
v
p
t
t
t
x
z
m
g
k
p
g
p
m
t
t
r
t
r
f
b
n
t
b
p
c
t
x
s
k
q
t
k
d
p
k
c
m
v
t
p
g
g
d
p
t
v
n
g
p
x
k
t
m
r
z
n
p
m
m
g
p
d
q
p
p
p
l
n
t
b
t
x
n
s
l
t
k
s
t
x
y
v
n
k
v
s
r
z
m
t
g
t
k
m
t
x
g
s
x
c
g
d
l
n
v
g
p
k
n
p
g
b
t
k
d
v
b
k
s
z
f
q
k
t
w
p
k
t
j
j
s
n
g
n
t
w
w
g
k
l
n
l
r
s
t
l
k
d
b
t
r
s
t
f
l
b
k
t
g
r
p
g
y
s
b
s
s
t
v
q
y
f
l
j
f
k
j
p
n
x
g
q
g
q
f
p
n
x
l
p
t
t
k
p
p
v
k
z
s
f
k
s
s
r
v
m
d
s
d
l
b
r
p
j
p
r
d
b
l
k
d
p
f
t
n
v
x
d
l
f
k
d
d
d
v
d
b
f
k
r
q
b
f
w
s
t
k
x
p
m
x
s
n
t
v
k
t
s
s
n
p
p
b
g
m
x
r
k
m
n
w
t
v
x
p
z
k
x
x
m
k
p
t
t
r
k
l
x
p
p
s
d
d
p
k
k
v
p
z
m
m
s
s
n
t
t
k
t
c
g
p
s
m
c
z
g
t
s
x
n
y
z
x
k
k
t
b
k
f
m
c
b
x
x
k
p
r
p
k
c
d
t
f
k
p
d
f
m
s
d
l
v
f
x
r
t
k
q
k
n
q
n
k
r
y
d
p
k
d
d
t
t
f
l
x
t
x
x
s
s
m
k
c
g
n
d
x
f
y
m
l
s
z
n
n
n
n
p
g
m
s
j
f
n
p
b
g
q
q
r
r
s
l
n
p
t
k
d
g
t
b
m
r
j
p
k
k
g
n
t
t
p
t
x
f
k
f
x
v
j
m
d
l
k
d
s
b
k
x
x
m
d
p
b
g
p
k
t
k
b
b
t
c
g
m
p
m
t
n
k
k
k
c
k
d
t
p
t
f
g
t
s
p
c
v
d
n
p
b
q
m
n
t
b
s
k
t
v
j
n
p
q
p
f
p
n
r
j
b
t
k
f
k
k
l
k
n
d
p
g
b
l
d
p
v
g
m
f
q
l
q
k
d
t
n
g
x
f
n
d
f
m
t
p
p
n
g
d
c
p
s
z
p
d
l
z
d
g
p
n
k
g
p
z
w
k
p
l
j
b
s
p
s
m
k
d
n
k
d
b
n
p
n
l
r
n
t
t
l
w
b
m
k
s
v
p
b
x
k
n
f
m
m
p
z
l
n
d
t
b
p
m
t
l
r
t
d
d
j
b
c
d
t
b
q
k
q
n
t
l
d
f
r
b
n
n
x
t
p
d
g
t
s
n
y
k
c
s
k
j
t
r
p
b
q
t
z
n
c
m
m
c
s
d
d
m
x
x
p
b
z
f
f
p
p
t
t
g
m
w
m
n
r
k
k
c
n
b
c
m
n
v
t
t
d
x
x
n
p
s
s
r
c
v
p
t
r
c
b
k
c
f
m
n
p
t
f
d
c
p
r
k
x
t
p
s
g
j
v
k
k
k
l
f
d
b
j
s
t
m
n
t
v
y
g
r
t
v
g
l
x
g
s
d
k
g
g
r
p
x
d
m
b
l
k
c
d
g
p
f
b
s
t
v
s
f
g
p
q
b
k
p
j
t
d
d
s
p
p
t
q
n
k
s
t
p
l
c
d
r
n
q
p
n
z
k
t
k
v
t
d
t
p
r
x
g
p
s
k
t
c
j
t
z
p
k
k
b
q
k
d
s
n
z
z
j
t
s
m
d
c
l
k
v
d
t
v
r
n
b
b
d
k
d
k
l
j
y
q
m
k
d
p
t
p
d
t
t
f
d
q
b
j
s
x
n
l
d
c
j
s
p
s
k
g
d
p
m
b
k
p
p
y
m
m
s
d
b
s
q
t
n
t
t
f
k
n
f
y
f
d
f
m
g
s
k
p
l
t
t
n
t
k
s
v
n
m
n
c
t
r
g
z
t
t
f
p
k
k
v
p
g
t
q
k
k
g
n
t
k
k
v
p
k
k
f
g
g
m
n
t
x
z
m
s
p
k
v
r
b
g
j
s
n
k
s
d
t
t
w
v
c
q
d
t
m
p
s
t
n
d
x
t
c
c
k
v
b
d
r
g
m
k
k
v
r
g
d
l
n
k
v
k
y
w
b
p
q
l
t
p
b
k
v
t
k
l
m
z
b
x
p
v
b
l
c
x
f
p
s
t
d
m
c
b
k
r
w
m
q
c
s
t
s
r
b
k
j
j
m
n
t
t
p
d
m
t
v
s
b
t
f
t
m
n
x
r
t
z
g
p
t
p
k
k
d
g
k
f
z
p
b
v
g
b
k
d
s
k
j
m
p
t
d
n
t
r
b
g
t
k
k
g
j
l
s
k
b
b
k
t
m
c
d
d
g
y
t
f
j
x
g
q
b
b
k
q
j
l
g
s
z
j
k
k
r
k
f
d
k
p
x
d
c
b
l
k
c
m
q
q
f
z
m
n
r
k
p
w
l
x
k
x
m
t
x
n
b
n
v
p
t
x
m
c
d
y
k
b
b
t
z
c
g
l
l
l
x
k
s
c
q
g
x
x
j
n
s
p
r
m
s
b
t
c
g
l
j
f
d
r
s
s
t
b
f
q
t
d
n
l
p
v
r
b
g
m
x
d
g
x
x
x
l
c
v
p
k
c
n
z
f
j
b
n
s
t
l
k
t
r
k
g
x
g
m
s
f
c
z
k
g
b
k
c
k
j
k
t
x
p
c
t
t
k
n
f
t
z
j
n
d
p
f
z
b
q
b
t
k
d
f
n
j
k
g
r
f
q
f
l
k
r
s
p
w
c
k
t
n
f
m
t
t
t
t
n
t
t
g
x
f
p
p
b
s
s
x
g
z
p
s
k
d
m
m
n
n
p
n
k
c
t
v
k
g
r
q
x
g
m
v
c
d
j
k
k
n
y
d
p
t
t
t
r
w
n
b
l
g
g
g
k
c
m
p
r
t
g
w
v
v
v
c
d
n
g
f
m
j
x
q
k
s
r
q
m
b
k
d
m
p
b
t
t
x
k
k
d
d
d
t
g
l
l
t
p
c
t
b
k
v
p
p
k
g
q
d
t
m
n
m
c
z
l
p
r
c
t
s
q
t
b
g
v
x
c
g
x
p
p
t
f
r
p
r
v
d
b
t
l
g
t
g
d
p
t
k
x
p
r
z
z
t
d
q
b
z
p
c
t
b
p
l
p
t
f
x
z
l
p
l
p
c
t
f
t
w
p
c
g
f
b
t
t
m
f
g
g
x
n
l
m
p
f
d
r
r
t
c
c
z
d
s
t
b
b
k
m
g
j
m
t
k
f
p
s
b
s
p
t
g
k
b
s
k
b
b
x
x
z
t
t
k
g
t
s
p
p
f
s
t
t
r
g
b
t
t
d
m
l
g
d
x
x
n
k
m
n
p
g
p
t
p
t
t
t
t
w
y
b
s
k
q
x
p
l
t
t
k
x
w
k
k
p
k
m
k
f
g
g
b
d
q
n
n
n
g
d
m
y
k
n
t
p
c
t
t
x
d
k
b
d
d
d
d
k
g
x
p
z
v
x
k
b
z
t
k
p
x
t
j
t
r
d
y
j
b
j
j
d
j
b
b
b
d
m
d
r
s
x
d
k
t
l
m
m
m
m
m
m
k
y
f
t
s
n
b
k
t
v
n
x
l
p
b
c
d
t
n
k
d
n
l
p
p
z
n
p
b
n
s
n
z
p
b
n
d
g
j
f
x
x
n
b
l
k
m
m
x
t
p
p
k
n
k
t
t
b
n
b
d
r
f
t
b
k
c
k
g
d
d
g
g
x
p
n
t
z
y
p
k
p
p
p
s
z
p
s
t
t
t
k
d
n
b
b
b
c
k
z
d
t
k
p
x
x
x
s
s
s
n
f
t
p
f
c
s
s
g
n
v
t
t
b
l
b
k
g
d
r
c
p
q
s
g
d
m
n
t
s
m
s
z
r
s
q
q
s
t
x
k
l
y
z
n
n
k
t
c
w
k
t
c
w
m
s
n
y
m
y
l
t
c
s
y
n
p
t
l
f
k
n
m
r
p
s
n
p
d
t
t
g
r
b
k
s
p
k
t
k
p
w
j
p
b
c
m
k
t
t
d
t
k
t
j
c
c
d
t
s
m
t
t
t
l
c
n
n
c
l
p
t
c
p
l
s
n
f
p
p
k
k
g
t
c
k
d
w
s
t
n
p
c
r
c
k
f
f
p
p
t
l
n
t
r
c
m
c
t
m
l
f
w
c
p
t
s
k
b
m
s
s
z
t
m
k
r
m
r
c
g
t
z
j
m
s
p
d
t
r
m
y
k
c
m
n
n
b
k
m
s
p
s
p
k
t
f
p
t
n
s
z
n
c
t
d
k
d
l
p
f
f
m
d
d
s
c
f
r
k
t
k
t
k
d
c
n
z
s
n
d
s
b
k
b
k
g
n
n
l
p
m
d
j
f
k
k
t
k
x
n
p
g
m
b
g
t
y
c
c
d
c
m
d
r
t
d
s
b
g
d
d
k
t
t
l
r
k
c
n
c
n
s
k
l
m
p
b
p
x
b
t
f
g
b
b
z
p
d
f
s
k
p
p
b
m
k
g
k
d
d
s
g
z
x
b
q
t
k
t
g
p
v
t
k
r
q
r
d
x
d
s
v
n
b
x
t
s
t
x
p
v
x
f
p
s
q
x
z
t
q
x
t
t
q
k
r
t
v
k
s
p
t
d
p
d
v
b
p
j
g
g
d
r
x
x
p
k
k
v
l
x
m
g
b
d
j
l
g
t
r
r
g
p
x
f
v
b
d
q
t
d
m
p
x
q
q
m
d
f
n
q
b
d
s
f
v
j
k
t
s
x
s
g
z
k
x
b
j
p
x
k
k
p
p
j
g
v
l
l
g
p
t
n
q
s
g
k
k
t
p
x
s
t
m
f
t
t
l
k
r
b
k
t
n
d
d
k
m
d
k
p
f
f
g
g
x
k
b
g
z
n
m
l
w
s
y
k
r
p
t
t
y
b
n
b
