t
k
k
k
p
m
t
n
k
c
t
c
k
t
n
n
n
m
t
c
k
t
m
t
t
k
n
n
n
n
p
t
n
k
t
k
k
t
n
n
n
n
c
t
m
t
k
k
t
t
k
n
t
n
n
c
k
c
k
t
n
c
p
n
k
k
m
t
m
t
p
t
n
s
n
c
t
k
k
n
m
p
t
c
t
t
t
c
p
m
c
p
c
t
t
n
m
k
n
k
p
n
c
n
s
c
k
k
n
n
c
n
t
n
k
n
s
p
c
c
s
c
n
n
k
n
s
m
p
c
s
t
c
k
k
n
m
n
c
n
t
c
c
s
c
m
n
t
n
s
t
k
t
n
s
n
m
k
t
c
t
n
m
c
t
s
n
k
s
s
t
k
n
n
c
c
t
c
t
c
n
n
f
t
c
t
t
f
t
n
t
s
c
k
m
t
k
t
n
t
n
c
n
s
n
s
t
k
n
k
k
c
p
t
c
t
s
f
t
s
k
s
t
p
s
k
n
n
s
t
t
s
t
s
s
k
s
s
n
c
n
n
c
c
p
n
f
m
f
p
n
n
p
m
s
t
n
t
t
c
t
s
p
t
m
s
c
k
s
k
n
n
n
s
n
c
f
n
s
n
m
s
c
t
s
p
f
s
n
n
f
c
m
t
k
n
n
t
c
f
n
m
k
p
n
c
c
m
c
t
t
k
k
s
f
t
n
c
k
t
k
s
c
p
n
t
c
s
p
p
n
t
p
k
s
c
t
k
p
t
t
s
f
p
c
c
k
k
k
c
f
c
s
c
n
k
m
k
c
t
k
s
p
f
s
c
n
s
k
c
k
n
n
s
k
p
m
t
p
t
n
k
n
n
n
k
s
s
f
t
p
p
k
p
c
m
f
s
m
t
t
p
m
m
n
c
n
t
t
t
n
c
n
p
s
t
c
n
m
t
p
s
n
c
m
n
k
m
p
k
n
c
m
k
t
k
t
k
c
f
c
t
f
s
m
t
t
n
t
c
p
p
m
k
t
p
c
c
f
n
c
k
t
n
c
p
k
k
n
s
p
t
f
c
c
p
m
s
n
p
m
f
c
p
t
m
p
t
m
k
s
s
t
t
c
m
t
s
n
s
c
t
c
p
c
k
n
n
k
n
t
m
n
t
n
m
k
t
t
n
s
m
c
m
m
p
k
m
s
c
c
p
k
f
p
k
m
n
k
n
k
t
s
s
c
t
k
t
t
n
s
s
s
t
k
k
f
p
c
p
c
m
t
k
p
k
p
m
f
c
f
s
f
k
t
c
s
c
k
c
s
n
m
f
t
k
m
p
p
s
t
m
c
p
p
t
c
t
k
t
t
t
t
t
c
c
k
n
s
c
k
n
t
p
n
t
n
n
c
n
n
n
s
t
t
t
n
t
p
p
f
t
n
n
n
f
n
n
p
n
n
c
s
n
t
t
n
n
c
t
c
m
s
t
n
n
t
s
t
n
n
k
t
n
k
s
p
c
n
n
t
n
k
m
t
t
n
k
n
s
n
s
t
s
f
t
t
t
s
n
s
n
n
n
n
f
k
k
m
n
p
t
t
t
c
n
c
n
c
k
s
n
n
t
c
n
c
n
c
n
c
n
s
s
c
f
k
t
m
c
k
t
k
t
n
n
c
c
m
k
t
p
t
t
c
n
n
n
m
s
n
k
k
k
n
n
n
k
t
t
m
c
c
c
n
t
t
n
t
c
k
c
c
k
t
t
k
t
n
n
k
t
c
c
n
k
t
c
s
c
t
c
t
t
t
c
f
n
t
t
k
n
t
c
c
c
n
m
n
k
k
n
k
t
t
k
p
c
t
k
n
c
k
p
m
s
t
n
p
t
s
t
n
k
t
c
k
t
n
n
k
c
n
n
c
t
t
t
t
s
p
s
t
k
n
t
n
t
c
s
t
t
s
t
n
t
m
c
s
t
t
t
n
t
c
t
k
k
p
t
s
p
s
n
n
t
c
m
t
t
k
s
p
c
n
t
n
p
n
m
m
n
c
c
c
t
n
p
k
p
t
t
s
n
t
n
n
n
m
n
s
s
n
n
f
c
p
t
t
t
s
s
t
t
c
c
c
n
n
f
p
n
s
n
n
t
c
c
n
m
t
n
c
k
s
c
k
s
f
c
p
k
t
c
s
c
p
t
c
n
k
n
t
c
t
s
n
n
m
c
s
n
n
t
p
p
t
n
k
k
s
s
c
c
s
n
s
t
m
n
t
c
n
k
t
c
p
t
t
f
c
k
c
k
c
p
c
m
n
n
k
k
k
m
t
p
n
t
n
c
c
n
s
f
s
t
p
s
m
p
s
p
t
f
n
t
k
k
c
t
m
k
t
t
k
n
p
k
m
k
k
m
k
c
c
t
p
t
p
n
n
s
t
k
n
c
c
t
m
c
t
n
m
t
t
n
k
p
t
k
k
s
t
s
k
t
p
k
f
p
f
c
m
m
c
c
k
s
n
p
t
k
p
p
k
t
s
t
n
m
c
n
t
c
n
k
t
n
m
s
k
n
t
s
n
s
n
k
k
p
s
p
m
s
t
t
n
n
s
f
s
p
p
n
n
p
p
p
n
t
t
m
k
n
s
t
f
s
f
k
n
s
m
t
t
f
s
c
m
n
n
n
f
f
p
t
n
k
n
c
t
n
k
m
n
k
f
s
t
s
p
n
n
m
m
c
n
n
s
n
k
c
n
t
s
s
k
m
p
c
t
t
c
k
t
m
t
k
t
t
t
s
t
t
t
n
s
c
t
n
t
c
t
t
t
s
f
n
s
k
s
n
c
t
k
c
k
t
p
c
n
t
k
n
n
n
p
n
t
n
f
t
k
k
c
n
c
n
p
n
k
s
t
t
k
t
k
s
n
m
c
f
p
k
k
p
t
p
c
s
s
m
c
k
n
c
k
k
c
t
c
c
t
p
s
c
t
t
m
k
m
k
n
n
c
f
s
t
m
k
c
f
s
t
k
k
s
s
s
n
s
n
m
n
t
t
c
c
f
p
p
s
p
n
c
t
s
c
s
s
c
k
f
k
n
n
t
s
c
s
s
m
t
k
n
k
f
n
t
c
s
c
t
n
t
k
m
t
m
n
n
m
f
n
t
c
t
k
k
n
s
c
k
s
n
t
n
m
n
c
n
s
s
t
k
m
s
k
n
n
c
k
n
p
c
k
n
t
c
k
n
t
k
t
n
n
k
p
p
c
n
m
s
k
m
f
s
k
m
m
k
c
s
c
k
t
k
f
t
n
s
c
k
k
c
p
t
s
m
n
k
p
n
n
p
t
s
k
c
n
n
p
n
t
f
k
t
f
m
t
s
f
c
m
k
n
s
n
c
k
n
k
n
m
n
p
n
k
f
k
p
p
m
s
n
t
s
s
n
t
m
n
m
t
m
m
s
c
m
k
t
n
s
c
t
t
c
c
n
t
m
s
t
t
n
n
n
n
k
p
c
n
p
t
f
p
k
c
k
m
c
t
s
n
k
k
f
t
p
t
t
f
k
k
t
n
k
m
f
k
n
f
n
k
p
s
n
m
k
s
s
m
t
m
s
t
t
m
f
f
p
n
m
t
m
c
m
k
t
t
n
p
n
k
c
n
t
k
n
k
n
s
k
s
c
k
s
n
n
t
t
t
n
c
t
k
t
k
s
t
c
k
c
c
c
n
n
f
t
s
k
c
s
f
m
t
k
p
t
s
m
f
s
c
t
m
s
t
n
t
c
s
k
n
m
p
t
m
m
t
n
c
p
c
p
s
m
n
n
s
c
t
n
s
t
k
f
n
p
m
c
m
p
c
s
p
n
c
m
n
m
t
t
k
s
f
k
n
n
s
s
f
s
p
k
m
c
t
t
k
t
n
s
t
k
k
t
m
s
p
s
f
f
c
m
s
k
t
k
s
n
n
k
f
s
t
s
m
p
p
t
s
t
m
p
t
p
n
k
c
c
c
c
t
k
k
k
c
t
s
c
s
k
p
k
t
c
c
p
p
m
t
p
n
p
k
s
t
c
k
k
c
t
f
t
c
n
k
m
c
p
n
p
p
f
s
k
k
f
t
m
c
s
k
m
p
f
c
t
k
k
s
s
f
s
t
t
m
t
p
k
n
k
t
k
c
s
f
t
f
m
m
s
c
k
n
p
c
f
m
c
t
p
p
p
m
n
p
k
c
p
m
p
s
k
s
c
t
k
k
p
s
m
p
s
t
t
c
n
k
m
n
c
k
c
t
n
n
n
s
t
p
n
s
c
c
p
s
n
m
m
s
c
n
f
m
n
m
m
p
k
c
m
k
n
p
k
p
k
p
s
c
p
k
c
t
f
f
m
s
n
m
m
k
m
p
c
m
c
n
t
k
t
s
m
n
f
p
p
c
n
s
f
m
s
n
c
p
c
m
k
f
m
k
c
c
k
s
t
m
s
m
k
c
f
k
c
f
k
s
n
s
k
p
m
f
k
p
t
k
s
p
c
f
c
t
c
m
c
c
t
k
s
c
n
t
f
f
p
t
t
c
c
p
s
s
c
k
p
m
s
k
t
m
p
s
k
n
p
m
t
n
t
k
m
k
f
m
s
m
s
p
m
p
c
c
t
p
m
s
f
m
k
p
f
s
p
m
s
c
t
s
f
f
m
c
k
n
t
m
p
f
c
s
s
n
p
p
t
t
p
s
f
s
t
k
k
c
m
p
k
t
p
n
k
f
k
c
k
m
s
m
k
s
m
m
p
f
m
p
s
f
n
s
n
k
n
p
t
m
k
c
s
s
n
s
f
k
t
p
p
m
t
c
p
p
m
p
t
c
s
k
f
m
f
s
m
n
t
k
c
m
f
s
t
m
c
c
m
k
m
m
c
s
m
s
k
p
s
k
p
m
k
s
f
c
p
m
n
t
m
n
n
n
m
s
k
t
k
s
n
n
t
m
t
t
k
k
m
t
m
t
t
p
s
k
f
m
t
t
k
p
t
m
n
t
f
t
t
n
t
t
n
t
t
t
s
k
k
m
t
k
t
k
t
n
p
p
n
t
n
n
n
t
s
n
t
n
t
c
s
k
k
f
k
t
n
n
n
f
t
t
m
t
m
n
n
n
c
n
n
k
p
c
t
p
s
f
t
t
m
s
f
m
k
p
t
c
t
n
m
p
m
n
n
m
m
k
n
f
f
n
c
p
k
p
t
p
t
m
s
k
n
k
n
n
n
s
t
t
s
t
f
n
s
f
n
m
t
m
t
n
p
s
k
n
t
t
t
n
s
n
p
s
k
t
s
n
s
f
s
t
k
t
f
k
t
n
m
s
k
c
s
s
t
k
t
n
t
k
n
f
k
n
s
n
s
n
k
s
k
n
m
n
t
p
f
t
p
n
t
t
s
n
n
t
s
n
m
n
m
m
m
m
n
p
s
m
n
m
n
k
n
c
s
n
k
c
n
f
s
k
m
k
k
t
n
k
p
n
n
n
n
c
n
n
s
k
t
s
c
n
f
k
n
t
c
k
t
m
k
n
s
c
n
f
t
m
k
t
n
p
k
t
t
f
t
s
m
m
k
p
t
n
m
s
k
k
t
t
m
k
m
s
s
k
t
p
n
k
t
p
k
s
p
k
m
m
m
k
m
f
m
t
k
n
s
c
t
p
p
p
k
k
k
f
t
n
m
s
k
t
k
n
n
n
k
m
s
t
s
s
f
k
k
n
f
p
k
t
k
k
n
s
f
n
k
s
m
k
m
t
m
c
n
n
c
n
n
s
f
m
s
p
m
m
c
p
c
f
t
m
t
n
k
t
f
n
m
p
n
n
n
k
p
n
f
f
p
k
t
t
s
n
k
f
s
n
n
c
k
m
t
m
m
k
f
m
f
f
k
p
k
f
k
t
m
n
n
t
c
n
s
k
m
t
k
f
m
s
p
s
t
m
f
c
p
f
t
k
f
t
t
k
p
p
k
t
n
m
k
t
t
m
t
s
k
k
t
p
m
n
p
n
s
k
n
n
s
n
p
m
k
t
f
k
n
k
s
c
n
k
n
s
s
p
k
c
m
m
k
t
p
m
t
s
s
f
s
c
s
k
f
k
t
n
k
m
s
t
k
s
c
t
n
p
s
f
t
c
k
n
t
k
m
t
c
t
k
f
m
n
n
f
s
t
t
k
s
m
p
n
n
s
c
t
m
k
t
t
n
c
s
m
p
s
f
n
k
n
t
p
s
c
k
f
f
f
s
f
s
m
s
t
n
p
n
c
n
c
m
k
m
c
s
f
k
p
m
f
k
t
f
n
f
t
f
c
c
p
n
n
c
n
t
p
s
t
t
k
f
s
m
c
s
n
k
p
k
f
m
t
t
t
n
n
n
s
m
c
c
n
p
p
t
p
k
m
s
s
n
s
n
k
m
p
p
t
k
n
p
t
n
n
f
t
k
n
m
m
k
c
k
t
c
k
s
t
k
m
f
n
n
k
p
t
n
k
m
s
c
n
n
k
k
k
t
f
c
s
f
n
k
k
k
p
k
f
s
s
s
f
p
s
m
p
p
n
c
p
s
t
s
n
n
t
k
t
c
m
k
s
n
f
s
f
t
n
s
c
p
n
s
f
k
k
m
t
k
n
s
s
f
p
n
t
p
p
s
s
p
k
p
t
s
t
c
k
p
p
s
t
m
f
m
t
k
s
c
s
n
f
c
t
f
m
c
s
p
f
k
k
k
p
t
c
n
f
c
f
s
f
p
p
n
t
p
c
p
k
f
s
f
f
t
p
p
m
t
m
s
n
p
c
c
n
t
n
m
f
m
n
n
k
k
m
s
s
p
p
p
n
s
t
k
s
f
k
t
f
k
m
f
n
c
t
t
p
s
k
k
s
n
t
k
s
p
p
c
t
f
t
s
t
s
s
k
k
c
n
p
m
k
k
c
f
n
m
f
m
k
n
n
n
m
p
c
t
n
f
p
f
c
m
n
c
t
f
k
n
c
s
n
k
p
t
p
k
s
n
p
s
s
c
c
k
t
s
s
s
c
c
f
s
s
m
c
t
m
p
t
s
f
f
m
t
n
c
n
c
t
n
s
p
n
s
c
c
c
m
m
f
f
k
f
p
k
t
n
k
f
t
s
n
s
c
n
m
n
p
n
p
c
p
p
p
t
m
k
k
s
f
t
c
s
f
k
n
f
n
n
n
k
p
f
m
m
p
n
k
m
f
t
t
p
p
s
k
s
s
c
p
f
c
s
n
p
m
k
k
p
p
f
n
f
p
m
n
n
n
n
p
c
k
c
n
n
s
p
c
p
t
k
m
p
t
m
t
p
f
f
f
k
p
c
c
f
s
p
s
f
k
c
m
p
s
m
f
s
m
f
c
t
f
s
t
t
m
k
t
s
s
s
c
n
t
f
n
t
m
m
f
n
f
s
n
f
s
s
n
t
m
c
t
c
t
k
c
n
s
n
p
t
s
s
k
n
c
t
f
s
c
s
s
k
k
p
k
p
n
p
n
p
t
m
p
c
s
m
s
m
m
t
s
f
t
n
s
f
s
p
s
k
m
t
t
p
s
f
p
m
k
m
k
k
n
s
t
m
c
n
p
p
n
m
s
p
k
m
p
t
k
n
p
s
p
t
f
n
f
p
s
k
f
s
p
t
f
p
n
n
f
m
m
t
s
s
m
t
f
s
c
p
p
t
n
p
k
k
c
k
t
n
s
k
k
c
p
k
p
t
f
n
p
s
t
s
n
f
f
s
p
p
f
f
m
p
k
p
m
t
t
k
f
c
n
f
t
t
f
c
p
p
f
f
c
k
f
m
m
f
m
m
t
t
k
f
m
t
k
p
s
s
k
k
k
n
k
t
p
p
f
f
s
p
m
s
p
t
k
n
n
c
p
p
m
t
k
c
p
p
t
t
n
c
f
p
m
m
m
s
c
f
m
n
s
s
c
f
n
p
p
k
f
p
k
s
f
p
p
k
m
t
f
k
p
p
c
m
m
k
p
m
m
n
k
m
n
m
m
c
k
s
f
f
c
s
n
m
k
k
m
t
p
t
c
t
f
f
s
c
p
f
k
s
p
f
k
k
p
k
m
f
f
n
f
c
n
s
m
s
c
m
n
m
p
c
n
k
n
p
p
s
p
s
f
m
s
c
f
c
t
k
k
s
p
m
c
c
n
p
k
s
f
t
n
m
s
k
p
m
s
m
s
t
f
k
m
t
t
p
s
c
c
t
p
p
f
t
n
n
m
f
s
n
f
n
s
s
t
m
t
c
t
c
s
t
k
s
p
f
n
k
t
s
n
t
n
t
k
n
t
n
t
t
f
t
n
s
n
p
t
n
k
p
t
t
s
s
n
t
t
k
s
t
n
f
k
t
s
k
k
t
t
s
p
t
f
p
t
t
p
n
n
n
n
k
s
p
f
k
s
m
k
n
t
f
p
n
n
n
t
t
p
t
s
n
k
p
f
k
p
p
t
s
n
t
f
p
t
t
t
n
t
n
n
t
t
p
s
p
n
t
n
p
k
t
t
t
n
p
n
t
t
s
t
s
t
p
t
t
t
s
k
p
s
t
n
n
t
n
t
n
p
m
t
k
s
p
k
s
p
n
s
t
n
t
k
k
t
p
k
t
n
t
t
t
n
n
n
t
t
t
n
t
n
t
t
t
s
s
m
c
m
m
s
c
t
s
n
k
t
t
t
n
t
n
s
c
p
s
m
n
n
s
n
t
t
t
p
t
t
n
n
t
n
t
n
f
s
t
t
t
p
n
n
s
t
n
t
s
t
t
n
p
n
t
t
k
n
t
n
t
k
n
t
t
t
n
c
t
m
k
n
s
t
t
t
s
n
n
t
n
c
t
s
t
n
n
k
t
c
n
n
k
t
n
n
n
c
n
t
k
c
c
p
n
k
t
n
s
n
t
k
n
t
t
n
m
k
k
s
n
s
f
n
s
n
t
m
n
f
t
n
t
s
t
c
n
t
n
s
n
t
n
n
m
t
m
t
s
k
n
s
t
p
t
t
s
t
s
s
n
k
p
t
t
n
k
k
n
n
n
s
p
n
c
t
t
m
n
n
t
n
n
t
t
k
t
n
s
p
c
k
s
f
k
t
n
m
n
m
n
n
t
t
n
p
n
t
s
n
t
k
n
n
m
n
p
t
k
n
n
t
n
t
t
n
s
k
s
n
s
n
k
m
n
n
p
p
t
s
p
f
n
k
k
n
s
t
t
n
t
n
t
n
n
n
p
t
t
t
s
n
t
n
t
t
p
s
t
c
s
n
n
n
p
c
n
c
t
t
t
n
m
c
t
n
f
k
n
s
c
t
f
n
n
n
n
t
n
t
t
n
n
s
s
s
f
s
t
s
n
s
t
k
k
n
f
n
p
c
t
s
t
s
t
t
n
s
t
k
k
s
t
s
s
n
t
t
t
k
n
n
n
f
t
t
n
t
n
c
c
k
t
c
n
n
t
t
n
t
t
t
t
k
k
n
k
n
k
n
s
c
t
t
t
t
n
t
k
t
t
c
t
t
t
k
c
t
s
m
n
n
p
t
n
c
t
c
c
f
k
n
t
k
m
n
c
t
s
t
n
n
s
t
t
f
f
k
p
n
n
p
t
n
t
n
n
n
s
t
f
n
t
m
n
t
n
s
s
n
m
m
t
n
s
s
t
k
t
n
k
s
f
m
m
p
p
t
n
n
s
s
m
s
p
p
p
k
k
n
p
p
p
s
t
t
p
t
t
t
n
s
f
s
s
s
p
t
m
n
p
n
t
n
s
n
n
t
p
s
p
s
n
n
p
n
f
k
p
m
t
f
n
c
t
t
t
t
n
m
n
f
n
t
k
s
t
t
s
s
n
t
s
n
m
n
n
p
p
p
f
c
f
t
n
t
n
t
t
p
t
s
t
k
t
t
n
t
n
s
t
t
m
k
t
p
m
s
p
k
n
t
s
n
k
t
n
t
c
m
k
s
n
n
n
t
t
n
t
m
n
n
t
n
f
t
p
t
p
n
n
n
n
n
k
n
n
n
t
c
m
n
t
t
c
k
n
t
k
n
t
c
t
n
f
k
k
s
t
k
n
s
s
n
f
t
c
n
f
k
t
t
k
f
n
p
t
t
k
n
n
t
m
m
c
k
m
t
n
t
p
t
t
t
k
t
t
c
f
t
k
n
k
s
k
p
t
k
m
n
m
m
s
n
t
s
n
k
n
k
s
p
s
t
n
n
n
n
t
s
t
s
k
n
t
n
f
t
t
n
t
s
s
t
p
t
p
n
t
f
n
t
t
c
t
t
s
p
t
n
k
s
t
s
f
s
t
n
n
n
t
n
k
f
n
k
n
t
f
t
n
f
t
n
k
t
s
k
k
t
s
t
t
f
n
n
c
t
t
n
n
t
n
p
k
c
p
k
c
s
n
k
k
f
f
p
t
s
n
k
c
p
k
k
n
t
s
t
s
t
k
n
s
n
k
f
t
k
n
t
t
n
t
k
m
n
n
p
n
n
t
s
p
n
s
t
f
t
s
p
m
m
s
n
s
c
k
t
f
s
n
t
k
n
n
k
n
k
n
n
p
t
n
p
t
p
c
t
f
s
s
n
n
c
k
n
s
t
t
m
m
s
k
t
s
s
t
n
t
s
k
n
s
k
m
f
p
s
n
t
c
n
k
f
s
t
t
n
t
s
k
s
n
n
s
s
n
c
p
s
k
t
t
s
n
n
p
n
s
t
t
n
k
n
t
t
t
s
k
n
s
s
c
t
t
f
n
k
n
p
s
m
t
k
n
k
n
m
f
p
n
s
t
s
n
k
s
s
t
t
k
s
t
s
t
k
p
t
k
t
k
s
t
t
n
t
n
m
n
n
s
s
t
c
k
s
n
m
c
k
m
p
s
p
m
t
p
t
t
t
s
c
f
t
t
t
k
p
n
n
n
t
n
m
n
s
t
f
t
c
t
m
s
s
c
c
t
t
s
n
n
n
p
s
t
t
t
n
t
n
k
n
s
k
n
s
n
f
s
n
n
n
n
k
t
f
s
n
n
t
p
p
p
t
p
c
p
n
n
s
f
n
n
m
p
t
k
p
s
n
t
t
c
f
f
f
k
k
t
n
n
c
m
p
p
t
s
s
t
n
t
n
t
n
p
t
t
s
n
k
p
k
p
n
c
n
n
s
s
s
k
m
n
t
n
t
f
k
s
m
t
f
s
s
t
k
n
f
k
k
t
t
n
f
t
k
f
p
n
f
n
m
s
k
n
k
m
t
c
p
t
s
c
t
m
t
k
p
p
n
m
k
p
t
n
k
c
s
t
c
f
c
k
p
m
t
m
p
t
t
c
n
s
s
n
m
t
k
t
n
k
s
t
c
t
k
p
p
n
t
n
p
c
c
k
p
t
n
n
k
s
p
n
t
s
t
n
s
m
k
k
n
c
p
s
s
k
m
m
k
t
t
k
s
s
p
c
t
n
t
t
s
k
s
n
f
p
f
p
k
s
c
p
n
s
n
n
t
s
t
t
s
f
n
n
n
t
t
t
n
k
k
t
n
k
n
t
n
t
t
t
t
m
m
p
t
t
k
s
c
s
n
t
m
n
t
n
f
s
f
t
p
k
k
s
n
n
s
m
s
k
n
k
c
s
k
k
s
s
t
t
s
t
s
s
m
t
n
f
n
k
p
s
t
k
t
k
p
t
c
m
m
p
t
n
n
f
s
p
k
p
t
k
t
n
t
m
k
s
n
k
t
s
n
t
m
t
t
c
f
t
t
t
n
s
t
t
t
n
s
m
s
t
m
t
s
m
k
t
s
t
p
t
f
n
k
p
p
n
t
n
n
t
n
k
k
n
t
f
s
t
k
t
n
m
n
m
p
t
s
k
f
s
p
t
k
c
n
n
p
n
s
k
f
s
t
p
c
s
t
n
s
m
m
m
k
s
k
s
m
c
n
n
n
s
s
n
s
s
c
t
p
s
f
k
k
s
c
s
n
c
f
n
c
m
t
n
k
s
s
s
s
t
t
t
s
s
n
t
n
t
t
n
k
k
n
n
n
c
s
n
t
s
m
k
k
n
n
k
m
k
n
n
c
k
t
t
k
n
f
m
f
k
f
t
t
f
n
c
m
t
f
s
n
n
t
s
n
n
t
n
t
n
c
t
m
n
p
t
t
n
t
t
p
t
t
c
f
t
n
p
s
c
m
t
p
t
n
n
t
k
k
t
s
t
t
c
c
c
k
c
s
n
f
c
k
p
n
k
n
t
t
k
s
k
m
t
s
f
n
p
s
k
m
s
s
n
m
p
n
s
c
n
t
s
p
n
n
t
t
t
n
t
n
n
m
m
t
t
t
s
f
k
n
n
k
n
n
t
s
f
m
t
m
p
n
n
c
s
m
s
n
k
s
f
f
p
t
t
m
s
n
n
s
k
c
n
n
n
m
k
s
c
n
n
f
t
c
f
m
k
n
t
p
f
n
c
p
n
s
k
p
s
t
n
s
n
k
s
s
k
s
s
s
k
m
k
f
s
t
n
p
t
p
p
p
f
n
c
k
k
s
t
s
k
t
k
k
s
s
c
n
n
n
c
c
f
p
c
k
c
n
n
m
t
n
k
t
t
m
t
f
n
p
c
n
t
s
s
n
t
p
s
m
t
k
m
n
s
p
n
p
m
p
c
n
k
t
m
p
t
t
t
c
n
f
t
f
k
k
s
n
n
m
p
s
f
k
t
n
f
n
c
k
p
m
p
p
t
n
p
t
n
t
c
n
s
s
k
t
f
m
t
p
k
m
n
n
s
m
k
t
t
t
p
t
k
m
s
s
s
n
k
t
c
k
s
t
s
p
k
s
k
c
c
p
n
k
n
n
s
p
t
k
t
s
n
k
c
n
f
n
t
t
k
n
p
t
n
m
p
k
n
t
c
s
c
k
s
n
c
k
k
c
c
m
n
n
n
c
t
n
c
m
p
t
m
k
m
f
c
n
p
f
t
m
k
n
s
n
s
s
c
s
m
p
s
s
m
n
k
m
m
m
c
t
t
n
p
k
k
t
t
k
c
f
n
n
n
n
c
s
k
t
m
n
k
t
n
p
n
f
s
s
k
m
k
t
s
m
f
k
f
t
n
f
s
t
t
s
t
n
t
c
t
s
p
t
n
t
m
m
n
f
s
t
n
k
s
f
m
n
p
p
n
k
p
k
k
t
s
t
t
p
f
c
n
t
m
n
n
n
k
n
c
n
s
n
n
n
c
c
k
t
p
m
n
p
n
s
n
k
k
t
t
p
m
n
s
s
n
k
k
m
c
n
t
t
t
c
c
s
n
n
c
m
f
n
k
c
t
t
n
t
m
c
s
f
t
t
t
c
n
m
n
m
c
n
n
c
t
n
c
n
n
m
k
s
p
t
m
s
p
s
s
t
t
k
t
t
n
c
t
n
c
m
k
n
k
t
n
t
n
k
m
s
t
t
n
s
t
m
t
k
m
f
n
t
t
f
m
t
m
t
s
k
c
n
t
n
n
t
f
t
c
n
t
n
f
k
m
k
t
f
n
t
p
k
t
f
t
n
c
s
n
n
k
t
t
n
m
f
n
k
t
p
t
t
p
t
n
n
n
t
m
n
n
n
s
p
k
t
t
k
t
n
n
t
k
t
n
p
c
s
t
s
k
s
n
p
s
n
n
n
n
n
t
k
t
s
m
n
t
s
f
s
f
n
c
t
k
s
f
t
p
f
n
n
m
t
n
k
n
s
c
m
n
m
n
k
t
s
n
s
p
n
t
n
t
n
t
c
s
t
m
p
c
k
m
t
k
k
n
n
k
p
n
s
t
c
n
k
c
k
k
n
t
n
s
c
p
t
f
m
s
t
s
s
p
k
m
m
s
f
m
m
p
m
c
t
m
t
t
c
t
s
f
n
t
s
k
t
t
n
s
s
t
p
m
k
k
c
t
s
t
n
t
k
n
s
k
n
f
m
k
f
k
m
m
k
f
s
c
p
s
c
t
p
c
s
n
f
c
t
p
f
s
c
k
m
m
t
n
k
n
k
p
k
s
c
t
t
k
f
m
m
k
t
n
k
n
s
t
s
p
p
p
k
k
k
t
k
n
t
c
k
n
c
k
c
p
n
n
m
f
c
k
m
f
m
t
k
p
k
t
n
t
t
m
t
p
k
m
n
c
s
n
m
c
n
k
n
t
t
m
c
n
k
m
t
p
c
n
k
m
f
p
m
s
c
s
n
n
t
n
t
s
f
p
k
s
s
n
n
t
n
n
s
t
f
t
k
t
p
s
k
t
m
s
k
n
t
n
m
s
m
m
c
t
n
f
t
p
k
n
n
t
s
t
n
p
n
k
n
c
c
m
t
c
k
t
k
s
k
s
n
t
n
c
c
m
c
n
p
k
t
c
n
k
s
k
p
s
c
t
m
t
m
p
n
f
n
t
s
f
t
f
k
t
t
t
k
k
k
s
c
p
p
c
k
m
s
s
p
c
p
c
k
t
n
k
m
k
k
m
t
m
s
k
t
n
t
p
s
p
p
s
p
s
n
s
p
s
t
t
n
t
t
s
n
s
p
s
k
s
c
c
k
t
p
f
n
t
t
c
t
k
f
t
m
c
s
t
t
s
f
f
n
m
p
m
t
m
m
t
s
p
t
p
n
s
c
c
t
t
s
s
m
t
k
p
c
n
k
c
k
k
n
k
f
s
t
n
n
t
n
t
p
n
k
m
n
s
k
k
n
t
t
n
f
t
f
n
t
m
p
p
t
k
n
f
s
t
n
p
k
m
t
f
n
s
k
m
k
n
m
s
k
m
s
p
k
n
n
m
c
t
s
n
c
n
t
c
p
t
k
k
f
t
m
c
p
c
k
m
t
t
m
t
n
n
p
m
c
n
n
n
c
m
c
m
f
n
k
k
t
k
c
s
p
c
m
t
t
c
c
n
s
k
p
p
m
s
p
t
p
f
f
k
p
k
s
n
t
s
m
p
p
n
t
c
t
t
t
m
k
s
t
t
k
t
f
c
m
s
k
t
c
s
p
t
t
t
f
n
t
m
s
n
s
m
s
p
n
k
t
n
t
n
n
t
f
p
k
c
c
m
m
s
k
m
c
m
n
k
p
m
k
k
f
t
n
k
t
s
m
p
k
p
m
c
t
f
n
k
c
f
k
m
s
p
c
c
c
k
m
n
p
n
f
t
k
m
t
s
p
n
m
p
n
m
k
n
f
t
t
p
t
f
f
t
p
n
s
n
s
c
m
t
m
n
n
n
f
k
k
s
m
s
s
p
t
s
p
s
s
t
m
k
p
m
n
f
p
f
t
m
k
k
p
k
m
p
n
s
t
t
c
s
k
t
k
c
s
t
k
t
s
k
n
k
p
s
s
n
t
m
f
m
n
k
t
t
p
t
n
n
t
f
c
t
s
p
n
s
n
k
p
m
m
s
f
c
k
s
p
k
k
n
c
f
c
f
f
n
k
m
f
f
t
k
k
s
s
s
s
c
m
s
t
p
t
s
t
k
n
m
m
k
s
k
n
t
n
t
m
t
k
f
m
k
c
s
n
n
f
k
f
f
n
t
m
m
s
f
c
n
p
n
c
f
n
p
s
p
k
s
n
n
k
s
m
f
k
f
s
n
n
n
p
m
k
s
t
p
k
k
n
k
p
s
t
c
s
n
k
f
m
t
k
m
n
t
k
p
n
c
s
s
c
s
n
t
s
t
t
t
c
c
p
k
s
p
m
m
m
m
m
f
f
n
s
n
t
k
k
t
f
t
s
k
k
t
n
s
t
n
n
k
f
s
c
s
f
p
k
m
f
s
t
s
s
s
n
k
c
c
s
c
s
n
t
s
n
s
m
t
c
s
t
s
t
k
n
c
p
t
n
t
m
c
c
c
p
p
s
t
n
t
n
k
f
t
s
k
m
s
k
n
k
m
m
c
s
f
t
t
s
n
s
n
f
t
n
n
t
p
k
k
t
p
m
s
p
n
n
p
s
n
n
k
s
s
k
k
t
t
p
n
k
n
n
c
k
m
c
s
n
c
s
t
p
n
k
t
p
t
s
p
f
n
s
n
k
k
n
p
n
m
p
c
m
f
k
f
s
c
p
n
c
s
c
t
f
s
f
t
t
k
m
c
k
f
c
m
k
c
k
s
m
t
n
t
m
p
m
c
s
n
f
k
s
k
n
p
t
t
c
c
f
k
f
n
k
s
s
f
m
c
n
t
p
t
k
n
f
k
n
s
m
s
c
s
n
p
s
s
k
t
t
c
p
p
p
t
k
p
f
s
s
k
n
m
m
m
k
c
m
m
k
t
k
k
c
t
t
t
m
f
t
c
n
n
k
m
c
k
t
m
t
m
n
p
f
p
n
t
t
m
m
f
k
m
s
s
c
m
p
k
n
c
s
t
n
c
p
m
n
n
m
k
t
p
p
p
s
t
f
t
s
t
t
p
c
m
s
k
m
c
k
c
f
n
s
s
m
p
p
p
f
t
n
k
c
t
n
p
p
s
t
n
f
k
c
c
n
s
p
t
n
m
p
s
n
t
p
s
s
f
n
c
k
c
k
t
k
n
t
p
s
s
m
k
n
k
m
p
t
p
k
p
m
t
n
n
f
k
p
s
s
f
p
k
k
m
s
t
c
p
k
f
m
k
f
p
s
p
k
m
f
n
p
s
n
s
p
m
c
t
s
s
k
k
s
s
t
n
k
c
s
f
k
n
c
m
p
f
t
c
c
t
k
m
t
p
k
n
k
s
t
n
m
n
c
p
n
n
f
n
c
p
n
t
k
p
n
k
k
t
n
c
s
n
n
m
n
k
t
k
t
t
k
f
n
c
k
f
n
t
p
n
t
t
t
t
t
t
k
c
p
c
t
f
s
k
t
t
k
k
t
m
s
m
k
n
f
k
t
k
c
c
t
f
m
s
p
n
t
n
f
p
s
k
p
n
m
k
s
s
p
k
t
t
k
s
s
f
k
p
k
k
c
f
s
n
t
k
m
m
p
p
k
t
m
c
c
n
k
p
s
p
s
p
f
s
n
m
s
k
n
m
k
t
n
m
m
m
p
k
n
f
c
p
s
s
n
k
f
f
m
m
p
m
t
m
f
t
c
f
k
p
t
s
c
t
m
n
c
t
m
p
p
m
n
m
f
k
k
n
c
n
k
n
k
f
s
c
m
t
p
k
t
s
s
k
t
c
k
c
t
k
c
f
k
p
p
c
t
k
m
s
n
c
f
c
k
f
n
t
